%YAML 1.1
%TAG !u! tag:unity3d.com,2011:
--- !u!221 &22100000
AnimatorOverrideController:
  m_ObjectHideFlags: 0
  m_CorrespondingSourceObject: {fileID: 0}
  m_PrefabInstance: {fileID: 0}
  m_PrefabAsset: {fileID: 0}
  m_Name: Worm Animator
  m_Controller: {fileID: 9100000, guid: eb39a798c3a0d8048a49b3b3aaa344a0, type: 2}
  m_Clips:
  - m_OriginalClip: {fileID: 7400000, guid: eeeab6a6dc5681848b8ac64031921ead, type: 2}
    m_OverrideClip: {fileID: 7400000, guid: df9db82348710d34987dc2c4be75778e, type: 2}
  - m_OriginalClip: {fileID: 7400000, guid: 638b3d02e6360b64c97914560ae485ba, type: 2}
    m_OverrideClip: {fileID: 7400000, guid: 71a75fa8cb5038b4397e67b8b7565612, type: 2}
  - m_OriginalClip: {fileID: 7400000, guid: b638a5a38cb33a049a9bda85987f0e27, type: 2}
    m_OverrideClip: {fileID: 7400000, guid: 47325276da6497a4ebcaff33304a7edd, type: 2}
